<?xml version="1.0" encoding="UTF-8" ?>
<!DOCTYPE svg PUBLIC "-//W3C//DTD SVG 1.1//EN" "http://www.w3.org/Graphics/SVG/1.1/DTD/svg11.dtd">
<svg width="1161pt" height="1161pt" viewBox="0 0 1161 1161" version="1.1" xmlns="http://www.w3.org/2000/svg">
<g id="#475dd5ff">
<path fill="#475dd5" opacity="1.00" d=" M 568.47 1.64 C 584.77 -1.70 602.37 1.97 615.90 11.67 C 621.05 15.21 625.27 19.86 629.70 24.22 C 799.22 193.75 968.76 363.26 1138.28 532.80 C 1144.09 538.36 1149.68 544.33 1153.41 551.54 C 1163.74 570.31 1163.06 594.53 1151.65 612.67 C 1146.81 620.88 1139.38 627.00 1132.87 633.79 C 964.69 801.96 796.53 970.15 628.33 1138.30 C 622.28 1144.70 615.60 1150.68 607.57 1154.47 C 589.27 1163.63 566.38 1162.63 548.95 1151.92 C 541.11 1147.38 535.14 1140.46 528.72 1134.21 C 358.58 964.04 188.41 793.91 18.26 623.75 C 7.98 613.48 1.56 599.45 0.60 584.94 C -0.74 567.51 5.87 549.66 18.32 537.39 C 191.51 364.20 364.69 191.01 537.88 17.82 C 546.23 9.62 557.00 3.93 568.47 1.64 M 315.11 402.30 L 315.12 403.03 C 335.70 423.73 356.61 444.12 377.30 464.71 L 377.89 464.88 C 401.06 442.11 423.99 419.08 447.21 396.36 L 447.90 396.73 C 447.71 457.91 447.86 519.09 447.78 580.28 C 477.29 580.29 506.80 580.26 536.32 580.32 C 536.26 518.55 536.37 456.78 536.25 395.02 C 536.52 395.14 537.06 395.38 537.33 395.50 C 560.33 418.51 583.11 441.73 606.02 464.83 L 606.67 464.85 C 627.39 444.52 647.89 423.96 668.59 403.60 C 668.68 403.24 668.86 402.54 668.95 402.18 C 667.41 400.34 665.58 398.78 663.94 397.05 C 606.64 339.79 549.42 282.45 492.07 225.25 C 433.12 284.30 374.03 343.22 315.11 402.30 M 625.69 580.69 C 625.73 641.78 625.68 702.86 625.71 763.95 L 625.15 764.49 C 601.81 741.94 579.03 718.81 555.83 696.13 L 555.22 696.20 C 534.49 716.50 514.02 737.06 493.36 757.42 C 493.30 757.79 493.17 758.54 493.11 758.91 C 551.97 817.92 610.96 876.83 669.91 935.76 C 728.92 876.78 787.97 817.84 846.90 758.80 L 846.96 757.95 C 826.15 737.14 805.00 716.63 784.29 695.72 C 761.15 719.06 737.92 742.31 714.90 765.76 L 714.20 765.41 C 714.20 703.85 714.19 642.29 714.19 580.73 C 684.69 580.69 655.19 580.76 625.69 580.69 Z" />
</g>
<g id="#ffffffff">
<path fill="#ffffff" opacity="1.00" d=" M 315.11 402.30 C 374.03 343.22 433.12 284.30 492.07 225.25 C 549.42 282.45 606.64 339.79 663.94 397.05 C 665.58 398.78 667.41 400.34 668.95 402.18 C 668.86 402.54 668.68 403.24 668.59 403.60 C 647.89 423.96 627.39 444.52 606.67 464.85 L 606.02 464.83 C 583.11 441.73 560.33 418.51 537.33 395.50 C 537.06 395.38 536.52 395.14 536.25 395.02 C 536.37 456.78 536.26 518.55 536.32 580.32 C 506.80 580.26 477.29 580.29 447.78 580.28 C 447.86 519.09 447.71 457.91 447.90 396.73 L 447.21 396.36 C 423.99 419.08 401.06 442.11 377.89 464.88 L 377.30 464.71 C 356.61 444.12 335.70 423.73 315.12 403.03 L 315.11 402.30 Z" />
<path fill="#ffffff" opacity="1.00" d=" M 625.69 580.69 C 655.19 580.76 684.69 580.69 714.19 580.73 C 714.19 642.29 714.20 703.85 714.20 765.41 L 714.90 765.76 C 737.92 742.31 761.15 719.06 784.29 695.72 C 805.00 716.63 826.15 737.14 846.96 757.95 L 846.90 758.80 C 787.97 817.84 728.92 876.78 669.91 935.76 C 610.96 876.83 551.97 817.92 493.11 758.91 C 493.17 758.54 493.30 757.79 493.36 757.42 C 514.02 737.06 534.49 716.50 555.22 696.20 L 555.83 696.13 C 579.03 718.81 601.81 741.94 625.15 764.49 L 625.71 763.95 C 625.68 702.86 625.73 641.78 625.69 580.69 Z" />
</g>
</svg>
