<?xml version="1.0" encoding="UTF-8" ?>
<!DOCTYPE svg PUBLIC "-//W3C//DTD SVG 1.1//EN" "http://www.w3.org/Graphics/SVG/1.1/DTD/svg11.dtd">
<svg width="1161pt" height="1161pt" viewBox="0 0 1161 1161" version="1.1" xmlns="http://www.w3.org/2000/svg">
<g id="#475dd5ff">
<path fill="#475dd5" opacity="1.00" d=" M 568.51 1.63 C 584.83 -1.70 602.45 1.99 615.98 11.73 C 621.11 15.26 625.30 19.90 629.72 24.24 C 799.39 193.91 969.07 363.58 1138.74 533.26 C 1144.82 539.01 1150.47 545.39 1154.16 552.98 C 1163.72 571.51 1162.76 594.96 1151.67 612.63 C 1146.83 620.86 1139.38 627.00 1132.85 633.81 C 966.01 800.65 799.17 967.49 632.33 1134.33 C 626.06 1140.42 620.25 1147.19 612.62 1151.67 C 594.01 1163.39 569.00 1163.71 550.05 1152.57 C 541.94 1148.14 535.77 1141.15 529.26 1134.75 C 362.11 967.56 194.91 800.42 27.76 633.23 C 20.25 625.66 11.96 618.45 7.26 608.66 C -4.50 586.64 -0.70 557.58 16.41 539.38 C 26.13 529.44 36.07 519.71 45.86 509.83 C 207.03 348.68 368.19 187.52 529.35 26.35 C 534.45 21.41 539.14 15.95 545.01 11.86 C 551.98 6.81 560.08 3.34 568.51 1.63 M 364.35 336.02 C 364.33 498.87 364.24 661.73 364.37 824.59 C 467.24 824.72 570.11 824.66 672.98 824.66 C 700.44 824.52 727.98 824.93 755.39 824.45 C 755.32 782.23 755.41 740.02 755.34 697.80 C 749.77 702.68 744.77 708.28 739.42 713.44 C 728.50 724.49 717.33 735.31 706.53 746.48 C 706.40 756.17 706.46 765.87 706.51 775.56 C 705.00 775.89 703.44 775.63 701.93 775.71 C 605.71 775.71 509.49 775.72 413.27 775.71 C 413.27 645.40 413.26 515.08 413.27 384.77 C 511.00 384.76 608.72 384.74 706.44 384.78 C 706.50 436.88 706.44 488.98 706.47 541.08 C 722.83 524.83 739.16 508.55 755.38 492.17 C 755.34 440.07 755.41 387.96 755.35 335.86 C 668.89 335.80 582.44 335.82 495.98 335.81 C 452.11 335.93 408.17 335.57 364.35 336.02 M 462.16 433.66 C 462.20 449.93 461.96 466.22 462.29 482.48 C 527.40 482.55 592.50 482.27 657.61 482.41 C 657.53 466.17 657.94 449.80 657.41 433.64 C 592.33 433.67 527.24 433.60 462.16 433.66 M 641.56 674.37 C 640.00 675.91 639.55 678.10 638.86 680.10 C 633.85 695.73 628.43 711.23 623.43 726.86 C 638.82 721.98 654.07 716.64 669.43 711.65 C 671.81 710.81 674.52 710.32 676.29 708.34 C 731.40 653.10 786.71 598.06 841.75 542.75 C 845.41 538.78 849.81 535.24 853.00 531.01 C 841.51 519.80 830.43 508.18 818.79 497.13 C 759.73 556.22 700.66 615.32 641.56 674.37 M 462.14 531.32 C 462.12 547.63 462.13 563.94 462.14 580.25 C 527.22 580.32 592.30 580.25 657.37 580.26 L 657.67 579.79 C 657.61 563.65 657.68 547.50 657.61 531.35 C 592.46 531.28 527.30 531.35 462.14 531.32 M 462.13 629.16 C 462.14 645.40 462.09 661.65 462.19 677.89 C 502.90 677.89 543.60 677.89 584.31 677.89 C 584.28 661.63 584.38 645.37 584.24 629.12 C 543.54 629.14 502.84 629.11 462.13 629.16 Z" />
</g>
<g id="#ffffffff">
<path fill="#ffffff" opacity="1.00" d=" M 364.35 336.02 C 408.17 335.57 452.11 335.93 495.98 335.81 C 582.44 335.82 668.89 335.80 755.35 335.86 C 755.41 387.96 755.34 440.07 755.38 492.17 C 739.16 508.55 722.83 524.83 706.47 541.08 C 706.44 488.98 706.50 436.88 706.44 384.78 C 608.72 384.74 511.00 384.76 413.27 384.77 C 413.26 515.08 413.27 645.40 413.27 775.71 C 509.49 775.72 605.71 775.71 701.93 775.71 C 703.44 775.63 705.00 775.89 706.51 775.56 C 706.46 765.87 706.40 756.17 706.53 746.48 C 717.33 735.31 728.50 724.49 739.42 713.44 C 744.77 708.28 749.77 702.68 755.34 697.80 C 755.41 740.02 755.32 782.23 755.39 824.45 C 727.98 824.93 700.44 824.52 672.98 824.66 C 570.11 824.66 467.24 824.72 364.37 824.59 C 364.24 661.73 364.33 498.87 364.35 336.02 Z" />
<path fill="#ffffff" opacity="1.00" d=" M 462.16 433.66 C 527.24 433.60 592.33 433.67 657.41 433.64 C 657.94 449.80 657.53 466.17 657.61 482.41 C 592.50 482.27 527.40 482.55 462.29 482.48 C 461.96 466.22 462.20 449.93 462.16 433.66 Z" />
<path fill="#ffffff" opacity="1.00" d=" M 641.56 674.37 C 700.66 615.32 759.73 556.22 818.79 497.13 C 830.43 508.18 841.51 519.80 853.00 531.01 C 849.81 535.24 845.41 538.78 841.75 542.75 C 786.71 598.06 731.40 653.10 676.29 708.34 C 674.52 710.32 671.81 710.81 669.43 711.65 C 654.07 716.64 638.82 721.98 623.43 726.86 C 628.43 711.23 633.85 695.73 638.86 680.10 C 639.55 678.10 640.00 675.91 641.56 674.37 Z" />
<path fill="#ffffff" opacity="1.00" d=" M 462.14 531.32 C 527.30 531.35 592.46 531.28 657.61 531.35 C 657.68 547.50 657.61 563.65 657.67 579.79 L 657.37 580.26 C 592.30 580.25 527.22 580.32 462.14 580.25 C 462.13 563.94 462.12 547.63 462.14 531.32 Z" />
<path fill="#ffffff" opacity="1.00" d=" M 462.13 629.16 C 502.84 629.11 543.54 629.14 584.24 629.12 C 584.38 645.37 584.28 661.63 584.31 677.89 C 543.60 677.89 502.90 677.89 462.19 677.89 C 462.09 661.65 462.14 645.40 462.13 629.16 Z" />
</g>
</svg>
