<?xml version="1.0" encoding="UTF-8" ?>
<!DOCTYPE svg PUBLIC "-//W3C//DTD SVG 1.1//EN" "http://www.w3.org/Graphics/SVG/1.1/DTD/svg11.dtd">
<svg width="1161pt" height="1161pt" viewBox="0 0 1161 1161" version="1.1" xmlns="http://www.w3.org/2000/svg">
<g id="#475dd5ff">
<path fill="#475dd5" opacity="1.00" d=" M 568.44 1.65 C 588.34 -2.54 610.07 4.10 624.20 18.73 C 792.40 186.90 960.57 355.09 1128.75 523.26 C 1134.03 528.65 1139.50 533.87 1144.72 539.34 C 1157.87 553.46 1163.48 574.07 1159.48 592.94 C 1157.13 604.58 1151.23 615.45 1142.83 623.83 C 969.83 796.82 796.84 969.83 623.83 1142.82 C 612.17 1154.57 595.61 1161.21 579.06 1160.71 C 566.59 1160.42 554.25 1156.20 544.24 1148.76 C 539.46 1145.27 535.48 1140.87 531.27 1136.75 C 365.10 970.57 198.92 804.40 32.74 638.23 C 27.62 633.03 22.39 627.95 17.30 622.74 C 5.69 610.71 -0.50 593.73 0.54 577.06 C 1.34 562.24 7.79 547.80 18.35 537.36 C 187.01 368.69 355.68 200.03 524.34 31.36 C 532.21 23.89 539.14 15.21 548.52 9.50 C 554.63 5.76 561.40 3.06 568.44 1.65 M 305.14 433.25 C 337.99 540.12 370.87 646.99 403.80 753.84 C 432.91 753.85 462.02 753.81 491.14 753.83 C 506.58 708.62 521.96 663.39 537.39 618.17 C 543.20 601.51 548.52 584.66 554.67 568.12 C 574.71 630.06 594.68 692.02 615.00 753.86 C 644.18 753.79 673.35 753.86 702.52 753.81 C 737.73 646.96 772.98 540.12 808.17 433.26 C 778.30 433.25 748.43 433.26 718.57 433.28 C 697.74 502.33 676.99 571.41 656.05 640.42 C 634.11 571.43 612.53 502.32 590.74 433.28 C 568.00 433.23 545.26 433.26 522.52 433.30 C 499.31 501.88 476.15 570.46 452.91 639.02 C 450.26 636.28 450.22 631.65 448.91 628.07 C 430.93 563.15 412.87 498.25 394.91 433.32 C 364.99 433.22 335.06 433.30 305.14 433.25 M 868.64 514.89 C 890.47 536.75 912.44 558.49 934.16 580.46 C 912.46 602.49 890.42 624.16 868.64 646.10 C 880.68 658.58 893.15 670.62 905.31 682.97 C 939.60 648.94 973.69 614.72 1007.86 580.57 C 973.91 546.23 939.47 512.37 905.53 478.02 C 893.06 490.12 880.74 502.42 868.64 514.89 Z" />
</g>
<g id="#ffffffff">
<path fill="#ffffff" opacity="1.00" d=" M 305.14 433.25 C 335.06 433.30 364.99 433.22 394.91 433.32 C 412.87 498.25 430.93 563.15 448.91 628.07 C 450.22 631.65 450.26 636.28 452.91 639.02 C 476.15 570.46 499.31 501.88 522.52 433.30 C 545.26 433.26 568.00 433.23 590.74 433.28 C 612.53 502.32 634.11 571.43 656.05 640.42 C 676.99 571.41 697.74 502.33 718.57 433.28 C 748.43 433.26 778.30 433.25 808.17 433.26 C 772.98 540.12 737.73 646.96 702.52 753.81 C 673.35 753.86 644.18 753.79 615.00 753.86 C 594.68 692.02 574.71 630.06 554.67 568.12 C 548.52 584.66 543.20 601.51 537.39 618.17 C 521.96 663.39 506.58 708.62 491.14 753.83 C 462.02 753.81 432.91 753.85 403.80 753.84 C 370.87 646.99 337.99 540.12 305.14 433.25 Z" />
<path fill="#ffffff" opacity="1.00" d=" M 868.64 514.89 C 880.74 502.42 893.06 490.12 905.53 478.02 C 939.47 512.37 973.91 546.23 1007.86 580.57 C 973.69 614.72 939.60 648.94 905.31 682.97 C 893.15 670.62 880.68 658.58 868.64 646.10 C 890.42 624.16 912.46 602.49 934.16 580.46 C 912.44 558.49 890.47 536.75 868.64 514.89 Z" />
</g>
</svg>
