<?xml version="1.0" encoding="UTF-8" ?>
<!DOCTYPE svg PUBLIC "-//W3C//DTD SVG 1.1//EN" "http://www.w3.org/Graphics/SVG/1.1/DTD/svg11.dtd">
<svg width="1161pt" height="1161pt" viewBox="0 0 1161 1161" version="1.1" xmlns="http://www.w3.org/2000/svg">
<g id="#475dd5ff">
<path fill="#475dd5" opacity="1.00" d=" M 568.51 1.64 C 588.42 -2.53 610.13 4.14 624.25 18.78 C 797.10 191.61 969.94 364.46 1142.79 537.30 C 1153.81 548.23 1160.39 563.48 1160.71 579.01 C 1161.09 592.22 1157.02 605.50 1149.29 616.23 C 1145.04 622.25 1139.39 627.05 1134.31 632.34 C 964.49 802.18 794.65 972.00 624.82 1141.83 C 619.09 1147.71 612.28 1152.57 604.71 1155.78 C 581.89 1165.93 553.29 1160.05 536.29 1141.76 C 363.78 969.27 191.28 796.76 18.77 624.26 C 9.19 614.88 2.78 602.28 1.02 588.97 C -1.10 574.06 2.57 558.42 11.13 546.02 C 15.33 539.73 21.10 534.74 26.34 529.36 C 195.18 360.53 364.01 191.70 532.84 22.86 C 542.22 12.39 554.53 4.23 568.51 1.64 M 549.18 267.17 C 533.94 275.44 522.16 289.93 517.34 306.60 C 514.58 316.40 506.67 324.61 496.89 327.55 C 484.93 330.94 474.11 337.94 465.75 347.10 C 444.47 347.23 423.19 347.00 401.91 347.24 C 379.95 348.11 360.75 368.04 360.67 390.01 C 360.62 523.00 360.67 655.99 360.70 788.98 C 361.10 811.80 382.20 831.95 405.06 831.09 C 518.35 831.17 631.65 831.16 744.95 831.13 C 752.79 830.98 760.83 831.81 768.47 829.49 C 782.71 825.52 794.62 814.02 798.76 799.78 C 800.84 793.06 800.76 785.95 800.69 778.99 C 800.71 649.32 800.68 519.66 800.63 390.00 C 800.56 367.92 781.15 347.83 759.03 347.23 C 737.93 347.07 716.82 347.11 695.72 347.20 C 688.81 339.87 680.58 333.68 671.21 329.89 C 666.95 327.99 662.23 327.27 658.18 324.91 C 651.20 320.89 645.90 314.06 643.87 306.25 C 637.40 284.07 618.47 266.06 595.91 260.93 C 580.27 257.19 563.28 259.42 549.18 267.17 Z" />
<path fill="#475dd5" opacity="1.00" d=" M 576.40 303.49 C 583.78 302.01 591.79 304.53 596.98 309.98 C 600.62 313.70 602.62 318.80 603.04 323.95 C 603.41 332.45 598.47 340.90 590.93 344.83 C 585.97 347.28 580.08 347.91 574.77 346.27 C 566.70 343.86 560.02 336.62 559.12 328.12 C 557.32 317.06 565.40 305.59 576.40 303.49 Z" />
<path fill="#475dd5" opacity="1.00" d=" M 404.69 391.13 C 419.36 391.12 434.02 391.13 448.68 391.13 C 448.67 405.82 448.71 420.51 448.64 435.20 C 536.59 435.11 624.54 435.08 712.50 435.18 C 712.87 420.53 712.54 405.86 712.69 391.21 C 727.35 391.06 742.02 391.15 756.69 391.16 C 756.61 523.15 756.69 655.14 756.63 787.13 C 639.32 787.13 522.01 787.13 404.70 787.13 C 404.69 655.13 404.67 523.13 404.69 391.13 M 622.30 560.28 C 595.48 586.97 569.00 614.01 542.12 640.64 C 524.96 624.24 508.07 607.55 491.24 590.80 C 480.52 600.86 470.12 611.27 460.09 622.02 C 460.25 622.32 460.58 622.91 460.74 623.21 C 487.98 649.67 514.89 676.49 541.87 703.22 C 593.15 652.17 644.05 600.73 695.52 549.89 C 685.50 539.08 674.72 528.99 664.44 518.43 C 650.36 532.35 636.50 546.48 622.30 560.28 Z" />
</g>
<g id="#ffffffff">
<path fill="#ffffff" opacity="1.00" d=" M 549.18 267.17 C 563.28 259.42 580.27 257.19 595.91 260.93 C 618.47 266.06 637.40 284.07 643.87 306.25 C 645.90 314.06 651.20 320.89 658.18 324.91 C 662.23 327.27 666.95 327.99 671.21 329.89 C 680.58 333.68 688.81 339.87 695.72 347.20 C 716.82 347.11 737.93 347.07 759.03 347.23 C 781.15 347.83 800.56 367.92 800.63 390.00 C 800.68 519.66 800.71 649.32 800.69 778.99 C 800.76 785.95 800.84 793.06 798.76 799.78 C 794.62 814.02 782.71 825.52 768.47 829.49 C 760.83 831.81 752.79 830.98 744.95 831.13 C 631.65 831.16 518.35 831.17 405.06 831.09 C 382.20 831.95 361.10 811.80 360.70 788.98 C 360.67 655.99 360.62 523.00 360.67 390.01 C 360.75 368.04 379.95 348.11 401.91 347.24 C 423.19 347.00 444.47 347.23 465.75 347.10 C 474.11 337.94 484.93 330.94 496.89 327.55 C 506.67 324.61 514.58 316.40 517.34 306.60 C 522.16 289.93 533.94 275.44 549.18 267.17 M 576.40 303.49 C 565.40 305.59 557.32 317.06 559.12 328.12 C 560.02 336.62 566.70 343.86 574.77 346.27 C 580.08 347.91 585.97 347.28 590.93 344.83 C 598.47 340.90 603.41 332.45 603.04 323.95 C 602.62 318.80 600.62 313.70 596.98 309.98 C 591.79 304.53 583.78 302.01 576.40 303.49 M 404.69 391.13 C 404.67 523.13 404.69 655.13 404.70 787.13 C 522.01 787.13 639.32 787.13 756.63 787.13 C 756.69 655.14 756.61 523.15 756.69 391.16 C 742.02 391.15 727.35 391.06 712.69 391.21 C 712.54 405.86 712.87 420.53 712.50 435.18 C 624.54 435.08 536.59 435.11 448.64 435.20 C 448.71 420.51 448.67 405.82 448.68 391.13 C 434.02 391.13 419.36 391.12 404.69 391.13 Z" />
<path fill="#ffffff" opacity="1.00" d=" M 622.30 560.28 C 636.50 546.48 650.36 532.35 664.44 518.43 C 674.72 528.99 685.50 539.08 695.52 549.89 C 644.05 600.73 593.15 652.17 541.87 703.22 C 514.89 676.49 487.98 649.67 460.74 623.21 C 460.58 622.91 460.25 622.32 460.09 622.02 C 470.12 611.27 480.52 600.86 491.24 590.80 C 508.07 607.55 524.96 624.24 542.12 640.64 C 569.00 614.01 595.48 586.97 622.30 560.28 Z" />
</g>
</svg>
