<?xml version="1.0" encoding="UTF-8" ?>
<!DOCTYPE svg PUBLIC "-//W3C//DTD SVG 1.1//EN" "http://www.w3.org/Graphics/SVG/1.1/DTD/svg11.dtd">
<svg width="1161pt" height="1161pt" viewBox="0 0 1161 1161" version="1.1" xmlns="http://www.w3.org/2000/svg">
<g id="#475dd5ff">
<path fill="#475dd5" opacity="1.00" d=" M 568.49 1.64 C 588.40 -2.53 610.12 4.13 624.25 18.78 C 795.26 189.77 966.26 360.77 1137.25 531.77 C 1142.29 536.75 1147.47 541.70 1151.21 547.78 C 1161.66 563.99 1163.64 585.24 1156.45 603.12 C 1153.38 610.85 1148.72 617.95 1142.83 623.83 C 970.00 796.66 797.17 969.49 624.33 1142.32 C 613.32 1153.64 597.83 1160.43 582.02 1160.71 C 564.48 1161.27 547.11 1153.65 535.28 1140.75 C 363.11 968.59 190.94 796.42 18.77 624.26 C 9.20 614.89 2.80 602.31 1.03 589.02 C -1.11 574.09 2.56 558.42 11.14 546.01 C 15.35 539.71 21.12 534.72 26.37 529.33 C 196.53 359.17 366.69 189.03 536.83 18.86 C 545.35 10.13 556.51 4.01 568.49 1.64 M 466.06 366.17 C 452.29 373.07 441.85 386.11 438.02 401.01 C 431.22 426.64 424.33 452.24 417.63 477.89 C 411.08 477.80 404.53 477.91 397.99 478.14 C 385.33 477.78 372.66 477.72 360.00 478.14 C 348.33 477.82 336.29 477.19 325.01 480.81 C 303.98 487.41 288.23 507.97 287.37 530.00 C 287.40 603.69 287.35 677.38 287.40 751.07 C 288.88 771.25 302.61 790.01 321.42 797.49 C 330.43 801.32 340.40 801.77 350.06 801.62 C 455.69 801.62 561.33 801.62 666.97 801.62 C 676.64 801.49 686.52 802.37 695.94 799.61 C 715.64 794.50 731.58 777.46 735.35 757.46 C 739.68 758.02 743.82 759.48 748.06 760.51 C 756.11 762.83 764.63 763.46 772.91 762.20 C 788.62 759.73 803.17 750.13 811.30 736.41 C 815.98 729.07 817.89 720.46 820.05 712.15 C 837.36 646.79 854.84 581.46 872.12 516.09 C 876.70 500.50 873.54 483.07 864.19 469.86 C 856.84 459.01 845.21 451.41 832.58 448.19 C 724.03 419.58 615.48 390.96 506.93 362.37 C 493.47 358.45 478.54 359.77 466.06 366.17 Z" />
<path fill="#475dd5" opacity="1.00" d=" M 478.99 411.07 C 480.72 404.46 488.47 400.59 494.90 402.58 C 602.37 430.92 709.86 459.24 817.34 487.54 C 822.27 488.42 827.69 490.13 830.26 494.83 C 832.65 498.42 832.12 502.97 830.97 506.89 C 827.54 520.14 823.98 533.35 820.45 546.57 C 792.25 539.03 764.00 531.67 735.79 524.18 C 733.19 509.54 724.84 495.95 712.49 487.56 C 703.89 481.63 693.53 478.24 683.07 478.11 C 643.04 478.09 602.99 477.54 562.96 478.04 C 558.44 477.83 554.17 476.26 549.81 475.21 C 522.41 467.87 494.89 460.95 467.55 453.37 C 471.60 439.34 475.01 425.13 478.99 411.07 Z" />
<path fill="#475dd5" opacity="1.00" d=" M 588.24 538.35 C 601.17 537.17 614.40 539.96 625.81 546.14 C 644.20 555.86 657.47 574.52 660.81 595.03 C 662.85 607.11 661.53 619.72 657.06 631.12 C 650.19 649.14 635.23 663.89 617.08 670.43 C 602.07 675.94 585.04 675.90 570.11 670.13 C 557.19 665.28 545.91 656.27 538.13 644.89 C 528.97 631.64 524.75 615.04 526.64 599.04 C 528.07 584.87 534.14 571.22 543.71 560.68 C 555.07 548.05 571.26 539.72 588.24 538.35 M 590.13 553.10 C 584.43 557.62 581.83 564.67 579.26 571.22 C 589.01 571.25 598.76 571.41 608.52 571.21 C 606.37 564.77 603.57 558.18 598.44 553.53 C 596.24 551.41 592.51 551.14 590.13 553.10 M 550.44 571.24 C 555.91 571.33 561.37 571.28 566.84 571.21 C 568.55 565.08 571.21 559.28 574.12 553.64 C 564.87 557.34 556.73 563.54 550.44 571.24 M 613.93 553.81 C 616.78 559.41 619.40 565.15 621.09 571.22 C 626.50 571.29 631.91 571.32 637.33 571.21 C 631.26 563.48 623.11 557.33 613.93 553.81 M 543.06 583.26 C 540.85 588.71 539.41 594.45 538.73 600.29 C 546.62 600.42 554.50 600.32 562.38 600.35 C 562.59 594.61 563.25 588.90 564.08 583.23 C 557.07 583.27 550.06 583.38 543.06 583.26 M 576.29 583.40 C 575.44 588.99 574.73 594.61 574.52 600.28 C 587.50 600.40 600.49 600.34 613.47 600.32 C 613.05 594.63 612.56 588.94 611.64 583.30 C 599.85 583.41 588.07 583.18 576.29 583.40 M 623.98 583.31 C 624.62 588.97 625.23 594.65 625.61 600.34 C 633.46 600.33 641.31 600.40 649.16 600.30 C 648.58 594.47 647.07 588.77 644.90 583.33 C 637.92 583.25 630.95 583.25 623.98 583.31 M 538.50 612.39 C 539.61 618.16 540.39 624.43 543.28 629.55 C 550.28 629.79 557.30 629.65 564.30 629.58 C 563.35 623.87 562.64 618.09 562.62 612.30 C 554.58 612.35 546.54 612.19 538.50 612.39 M 574.23 612.31 C 574.75 618.10 575.13 623.90 576.13 629.64 C 588.04 629.68 599.96 629.66 611.87 629.65 C 612.82 623.90 613.07 618.08 613.71 612.30 C 600.55 612.32 587.39 612.30 574.23 612.31 M 625.40 612.27 C 625.17 618.05 624.63 623.83 623.66 629.54 C 630.73 629.77 637.81 629.63 644.89 629.62 C 647.26 624.14 648.47 618.26 649.43 612.40 C 641.42 612.23 633.41 612.33 625.40 612.27 M 550.48 641.36 C 556.52 649.19 564.83 655.37 574.07 658.90 C 571.35 653.17 568.56 647.45 566.77 641.34 C 561.34 641.35 555.91 641.33 550.48 641.36 M 579.21 641.33 C 581.74 647.77 584.21 654.72 589.71 659.29 C 592.20 661.73 596.47 661.18 598.84 658.85 C 603.78 654.19 606.37 647.67 608.58 641.39 C 598.79 641.28 589.00 641.40 579.21 641.33 M 621.11 641.35 C 619.46 647.50 616.58 653.20 613.91 658.95 C 623.09 655.21 631.36 649.18 637.49 641.36 C 632.03 641.34 626.57 641.35 621.11 641.35 Z" />
<path fill="#475dd5" opacity="1.00" d=" M 736.64 577.35 C 760.12 583.43 783.53 589.84 807.05 595.80 C 797.53 634.28 786.80 672.46 776.79 710.82 C 775.22 717.60 767.66 722.38 760.88 720.47 C 752.80 718.39 744.75 716.16 736.66 714.10 C 736.63 668.52 736.66 622.93 736.64 577.35 Z" />
<path fill="#475dd5" opacity="1.00" d=" M 348.11 617.60 C 372.50 617.43 396.89 617.19 421.28 617.49 C 421.24 632.38 421.28 647.28 421.26 662.17 C 396.87 662.00 372.48 662.50 348.10 661.86 C 348.14 647.11 348.12 632.35 348.11 617.60 Z" />
<path fill="#475dd5" opacity="1.00" d=" M 347.75 697.68 C 389.20 698.02 430.66 697.71 472.11 697.86 C 472.21 703.79 471.90 709.74 472.34 715.67 C 430.82 715.86 389.29 715.65 347.77 715.77 C 347.75 709.74 347.77 703.71 347.75 697.68 Z" />
<path fill="#475dd5" opacity="1.00" d=" M 483.12 697.82 C 507.04 697.83 530.96 697.83 554.88 697.82 C 554.88 703.68 554.87 709.54 554.88 715.40 C 530.96 715.36 507.04 715.37 483.11 715.40 C 483.13 709.54 483.11 703.68 483.12 697.82 Z" />
<path fill="#475dd5" opacity="1.00" d=" M 572.12 697.78 C 604.54 697.83 636.96 697.83 669.38 697.83 C 669.39 703.68 669.37 709.53 669.39 715.39 C 636.96 715.35 604.54 715.42 572.11 715.35 C 572.13 709.49 572.11 703.64 572.12 697.78 Z" />
</g>
<g id="#ffffffff">
<path fill="#ffffff" opacity="1.00" d=" M 466.06 366.17 C 478.54 359.77 493.47 358.45 506.93 362.37 C 615.48 390.96 724.03 419.58 832.58 448.19 C 845.21 451.41 856.84 459.01 864.19 469.86 C 873.54 483.07 876.70 500.50 872.12 516.09 C 854.84 581.46 837.36 646.79 820.05 712.15 C 817.89 720.46 815.98 729.07 811.30 736.41 C 803.17 750.13 788.62 759.73 772.91 762.20 C 764.63 763.46 756.11 762.83 748.06 760.51 C 743.82 759.48 739.68 758.02 735.35 757.46 C 731.58 777.46 715.64 794.50 695.94 799.61 C 686.52 802.37 676.64 801.49 666.97 801.62 C 561.33 801.62 455.69 801.62 350.06 801.62 C 340.40 801.77 330.43 801.32 321.42 797.49 C 302.61 790.01 288.88 771.25 287.40 751.07 C 287.35 677.38 287.40 603.69 287.37 530.00 C 288.23 507.97 303.98 487.41 325.01 480.81 C 336.29 477.19 348.33 477.82 360.00 478.14 C 372.66 477.72 385.33 477.78 397.99 478.14 C 404.53 477.91 411.08 477.80 417.63 477.89 C 424.33 452.24 431.22 426.64 438.02 401.01 C 441.85 386.11 452.29 373.07 466.06 366.17 M 478.99 411.07 C 475.01 425.13 471.60 439.34 467.55 453.37 C 494.89 460.95 522.41 467.87 549.81 475.21 C 554.17 476.26 558.44 477.83 562.96 478.04 C 602.99 477.54 643.04 478.09 683.07 478.11 C 693.53 478.24 703.89 481.63 712.49 487.56 C 724.84 495.95 733.19 509.54 735.79 524.18 C 764.00 531.67 792.25 539.03 820.45 546.57 C 823.98 533.35 827.54 520.14 830.97 506.89 C 832.12 502.97 832.65 498.42 830.26 494.83 C 827.69 490.13 822.27 488.42 817.34 487.54 C 709.86 459.24 602.37 430.92 494.90 402.58 C 488.47 400.59 480.72 404.46 478.99 411.07 M 588.24 538.35 C 571.26 539.72 555.07 548.05 543.71 560.68 C 534.14 571.22 528.07 584.87 526.64 599.04 C 524.75 615.04 528.97 631.64 538.13 644.89 C 545.91 656.27 557.19 665.28 570.11 670.13 C 585.04 675.90 602.07 675.94 617.08 670.43 C 635.23 663.89 650.19 649.14 657.06 631.12 C 661.53 619.72 662.85 607.11 660.81 595.03 C 657.47 574.52 644.20 555.86 625.81 546.14 C 614.40 539.96 601.17 537.17 588.24 538.35 M 736.64 577.35 C 736.66 622.93 736.63 668.52 736.66 714.10 C 744.75 716.16 752.80 718.39 760.88 720.47 C 767.66 722.38 775.22 717.60 776.79 710.82 C 786.80 672.46 797.53 634.28 807.05 595.80 C 783.53 589.84 760.12 583.43 736.64 577.35 M 348.11 617.60 C 348.12 632.35 348.14 647.11 348.10 661.86 C 372.48 662.50 396.87 662.00 421.26 662.17 C 421.28 647.28 421.24 632.38 421.28 617.49 C 396.89 617.19 372.50 617.43 348.11 617.60 M 347.75 697.68 C 347.77 703.71 347.75 709.74 347.77 715.77 C 389.29 715.65 430.82 715.86 472.34 715.67 C 471.90 709.74 472.21 703.79 472.11 697.86 C 430.66 697.71 389.20 698.02 347.75 697.68 M 483.12 697.82 C 483.11 703.68 483.13 709.54 483.11 715.40 C 507.04 715.37 530.96 715.36 554.88 715.40 C 554.87 709.54 554.88 703.68 554.88 697.82 C 530.96 697.83 507.04 697.83 483.12 697.82 M 572.12 697.78 C 572.11 703.64 572.13 709.49 572.11 715.35 C 604.54 715.42 636.96 715.35 669.39 715.39 C 669.37 709.53 669.39 703.68 669.38 697.83 C 636.96 697.83 604.54 697.83 572.12 697.78 Z" />
<path fill="#ffffff" opacity="1.00" d=" M 590.13 553.10 C 592.51 551.14 596.24 551.41 598.44 553.53 C 603.57 558.18 606.37 564.77 608.52 571.21 C 598.76 571.41 589.01 571.25 579.26 571.22 C 581.83 564.67 584.43 557.62 590.13 553.10 Z" />
<path fill="#ffffff" opacity="1.00" d=" M 550.44 571.24 C 556.73 563.54 564.87 557.34 574.12 553.64 C 571.21 559.28 568.55 565.08 566.84 571.21 C 561.37 571.28 555.91 571.33 550.44 571.24 Z" />
<path fill="#ffffff" opacity="1.00" d=" M 613.93 553.81 C 623.11 557.33 631.26 563.48 637.33 571.21 C 631.91 571.32 626.50 571.29 621.09 571.22 C 619.40 565.15 616.78 559.41 613.93 553.81 Z" />
<path fill="#ffffff" opacity="1.00" d=" M 543.06 583.26 C 550.06 583.38 557.07 583.27 564.08 583.23 C 563.25 588.90 562.59 594.61 562.38 600.35 C 554.50 600.32 546.62 600.42 538.73 600.29 C 539.41 594.45 540.85 588.71 543.06 583.26 Z" />
<path fill="#ffffff" opacity="1.00" d=" M 576.29 583.40 C 588.07 583.18 599.85 583.41 611.64 583.30 C 612.56 588.94 613.05 594.63 613.47 600.32 C 600.49 600.34 587.50 600.40 574.52 600.28 C 574.73 594.61 575.44 588.99 576.29 583.40 Z" />
<path fill="#ffffff" opacity="1.00" d=" M 623.98 583.31 C 630.95 583.25 637.92 583.25 644.90 583.33 C 647.07 588.77 648.58 594.47 649.16 600.30 C 641.31 600.40 633.46 600.33 625.61 600.34 C 625.23 594.65 624.62 588.97 623.98 583.31 Z" />
<path fill="#ffffff" opacity="1.00" d=" M 538.50 612.39 C 546.54 612.19 554.58 612.35 562.62 612.30 C 562.64 618.09 563.35 623.87 564.30 629.58 C 557.30 629.65 550.28 629.79 543.28 629.55 C 540.39 624.43 539.61 618.16 538.50 612.39 Z" />
<path fill="#ffffff" opacity="1.00" d=" M 574.23 612.31 C 587.39 612.30 600.55 612.32 613.71 612.30 C 613.07 618.08 612.82 623.90 611.87 629.65 C 599.96 629.66 588.04 629.68 576.13 629.64 C 575.13 623.90 574.75 618.10 574.23 612.31 Z" />
<path fill="#ffffff" opacity="1.00" d=" M 625.40 612.27 C 633.41 612.33 641.42 612.23 649.43 612.40 C 648.47 618.26 647.26 624.14 644.89 629.62 C 637.81 629.63 630.73 629.77 623.66 629.54 C 624.63 623.83 625.17 618.05 625.40 612.27 Z" />
<path fill="#ffffff" opacity="1.00" d=" M 550.48 641.36 C 555.91 641.33 561.34 641.35 566.77 641.34 C 568.56 647.45 571.35 653.17 574.07 658.90 C 564.83 655.37 556.52 649.19 550.48 641.36 Z" />
<path fill="#ffffff" opacity="1.00" d=" M 579.21 641.33 C 589.00 641.40 598.79 641.28 608.58 641.39 C 606.37 647.67 603.78 654.19 598.84 658.85 C 596.47 661.18 592.20 661.73 589.71 659.29 C 584.21 654.72 581.74 647.77 579.21 641.33 Z" />
<path fill="#ffffff" opacity="1.00" d=" M 621.11 641.35 C 626.57 641.35 632.03 641.34 637.49 641.36 C 631.36 649.18 623.09 655.21 613.91 658.95 C 616.58 653.20 619.46 647.50 621.11 641.35 Z" />
</g>
</svg>
