<?xml version="1.0" encoding="UTF-8" ?>
<!DOCTYPE svg PUBLIC "-//W3C//DTD SVG 1.1//EN" "http://www.w3.org/Graphics/SVG/1.1/DTD/svg11.dtd">
<svg width="1161pt" height="1161pt" viewBox="0 0 1161 1161" version="1.1" xmlns="http://www.w3.org/2000/svg">
<g id="#475dd5ff">
<path fill="#475dd5" opacity="1.00" d=" M 568.43 1.65 C 588.35 -2.54 610.09 4.11 624.23 18.75 C 797.08 191.58 969.91 364.42 1142.74 537.26 C 1155.23 549.56 1161.92 567.42 1160.58 584.91 C 1159.60 600.71 1151.97 615.73 1140.31 626.34 C 967.98 798.68 795.67 971.02 623.31 1143.32 C 610.31 1156.20 591.31 1162.61 573.16 1160.27 C 560.15 1158.73 547.69 1152.83 538.28 1143.71 C 364.89 970.44 191.60 797.06 18.26 623.74 C 7.48 613.01 0.99 598.12 0.48 582.91 C -0.24 566.12 6.37 549.18 18.34 537.37 C 189.49 366.21 360.66 195.06 531.81 23.89 C 535.51 20.24 539.02 16.38 543.17 13.22 C 550.54 7.48 559.27 3.50 568.43 1.65 M 519.26 293.15 C 518.86 322.82 519.83 352.47 521.01 382.10 C 524.19 467.79 528.02 553.46 533.04 639.08 C 534.44 664.72 535.76 690.42 539.42 715.86 C 551.61 719.39 564.44 720.05 577.05 719.27 C 585.71 719.30 594.34 718.53 602.99 718.08 C 608.51 717.64 614.26 717.17 619.23 714.49 C 622.33 700.55 622.70 686.18 624.05 672.01 C 629.74 601.77 633.37 531.40 637.01 461.04 C 638.40 437.37 639.29 413.69 640.24 390.01 C 641.63 357.76 643.14 325.49 642.73 293.19 C 631.14 289.86 618.96 290.18 607.03 289.42 C 591.02 289.07 574.99 288.45 558.98 289.03 C 545.73 289.85 531.98 288.65 519.26 293.15 M 535.08 755.72 C 531.75 756.69 526.62 756.51 525.68 760.72 C 523.82 766.98 523.70 773.59 523.03 780.05 C 521.93 795.32 521.55 810.64 521.96 825.94 C 522.73 839.58 521.96 853.69 526.50 866.79 C 529.64 869.30 533.79 869.45 537.59 870.04 C 564.92 872.86 592.50 872.72 619.85 870.19 C 624.33 869.53 629.17 869.57 633.16 867.15 C 634.51 865.75 634.96 863.78 635.42 861.96 C 637.25 853.08 637.52 843.98 638.15 834.97 C 639.21 813.85 639.26 792.62 637.05 771.58 C 636.21 766.90 636.64 760.80 632.48 757.64 C 625.70 754.69 618.15 754.45 610.89 753.84 C 585.63 752.47 560.22 752.69 535.08 755.72 Z" />
</g>
<g id="#ffffffff">
<path fill="#ffffff" opacity="1.00" d=" M 519.26 293.15 C 531.98 288.65 545.73 289.85 558.98 289.03 C 574.99 288.45 591.02 289.07 607.03 289.42 C 618.96 290.18 631.14 289.86 642.73 293.19 C 643.14 325.49 641.63 357.76 640.24 390.01 C 639.29 413.69 638.40 437.37 637.01 461.04 C 633.37 531.40 629.74 601.77 624.05 672.01 C 622.70 686.18 622.33 700.55 619.23 714.49 C 614.26 717.17 608.51 717.64 602.99 718.08 C 594.34 718.53 585.71 719.30 577.05 719.27 C 564.44 720.05 551.61 719.39 539.42 715.86 C 535.76 690.42 534.44 664.72 533.04 639.08 C 528.02 553.46 524.19 467.79 521.01 382.10 C 519.83 352.47 518.86 322.82 519.26 293.15 Z" />
<path fill="#ffffff" opacity="1.00" d=" M 535.08 755.72 C 560.22 752.69 585.63 752.47 610.89 753.84 C 618.15 754.45 625.70 754.69 632.48 757.64 C 636.64 760.80 636.21 766.90 637.05 771.58 C 639.26 792.62 639.21 813.85 638.15 834.97 C 637.52 843.98 637.25 853.08 635.42 861.96 C 634.96 863.78 634.51 865.75 633.16 867.15 C 629.17 869.57 624.33 869.53 619.85 870.19 C 592.50 872.72 564.92 872.86 537.59 870.04 C 533.79 869.45 529.64 869.30 526.50 866.79 C 521.96 853.69 522.73 839.58 521.96 825.94 C 521.55 810.64 521.93 795.32 523.03 780.05 C 523.70 773.59 523.82 766.98 525.68 760.72 C 526.62 756.51 531.75 756.69 535.08 755.72 Z" />
</g>
</svg>
