<?xml version="1.0" encoding="UTF-8" ?>
<!DOCTYPE svg PUBLIC "-//W3C//DTD SVG 1.1//EN" "http://www.w3.org/Graphics/SVG/1.1/DTD/svg11.dtd">
<svg width="1161pt" height="1161pt" viewBox="0 0 1161 1161" version="1.1" xmlns="http://www.w3.org/2000/svg">
<g id="#475dd5ff">
<path fill="#475dd5" opacity="1.00" d=" M 568.49 1.64 C 588.42 -2.54 610.15 4.14 624.28 18.81 C 797.11 191.61 969.92 364.44 1142.74 537.25 C 1155.24 549.57 1161.93 567.44 1160.58 584.93 C 1159.68 598.30 1154.19 611.29 1145.25 621.26 C 1141.25 625.57 1136.96 629.59 1132.86 633.80 C 963.18 803.47 793.51 973.16 623.82 1142.82 C 613.55 1153.14 599.52 1159.60 584.99 1160.57 C 570.84 1161.63 556.39 1157.56 544.90 1149.24 C 539.64 1145.52 535.33 1140.69 530.74 1136.22 C 362.09 967.55 193.41 798.91 24.76 630.23 C 18.88 624.43 12.76 618.66 8.73 611.35 C -1.12 594.70 -2.25 573.29 5.73 555.68 C 8.76 548.87 13.04 542.63 18.33 537.38 C 191.50 364.20 364.68 191.02 537.87 17.84 C 546.22 9.63 557.00 3.93 568.49 1.64 M 402.05 421.14 C 390.84 431.25 381.73 443.67 375.30 457.33 C 366.41 475.87 362.68 496.53 362.24 516.99 C 361.81 541.16 365.94 565.21 372.35 588.46 C 382.84 621.06 400.00 651.24 420.74 678.39 C 441.98 706.16 466.94 730.92 493.90 753.12 C 522.55 776.85 553.56 797.74 586.38 815.28 C 596.33 810.10 606.02 804.44 615.57 798.56 C 664.98 767.59 710.73 729.92 747.27 684.26 C 767.09 659.32 783.91 631.80 795.44 602.04 C 801.95 585.73 805.49 568.41 808.11 551.10 C 811.40 527.64 811.39 503.42 805.51 480.36 C 800.84 462.53 792.62 445.46 780.46 431.52 C 743.03 387.86 673.23 375.67 624.01 406.11 C 608.18 415.71 595.12 429.58 586.29 445.83 C 572.90 420.11 547.85 401.52 520.14 393.80 C 479.56 382.27 433.49 393.05 402.05 421.14 Z" />
</g>
<g id="#ffffffff">
<path fill="#ffffff" opacity="1.00" d=" M 402.05 421.14 C 433.49 393.05 479.56 382.27 520.14 393.80 C 547.85 401.52 572.90 420.11 586.29 445.83 C 595.12 429.58 608.18 415.71 624.01 406.11 C 673.23 375.67 743.03 387.86 780.46 431.52 C 792.62 445.46 800.84 462.53 805.51 480.36 C 811.39 503.42 811.40 527.64 808.11 551.10 C 805.49 568.41 801.95 585.73 795.44 602.04 C 783.91 631.80 767.09 659.32 747.27 684.26 C 710.73 729.92 664.98 767.59 615.57 798.56 C 606.02 804.44 596.33 810.10 586.38 815.28 C 553.56 797.74 522.55 776.85 493.90 753.12 C 466.94 730.92 441.98 706.16 420.74 678.39 C 400.00 651.24 382.84 621.06 372.35 588.46 C 365.94 565.21 361.81 541.16 362.24 516.99 C 362.68 496.53 366.41 475.87 375.30 457.33 C 381.73 443.67 390.84 431.25 402.05 421.14 Z" />
</g>
</svg>
