<?xml version="1.0" encoding="UTF-8" ?>
<!DOCTYPE svg PUBLIC "-//W3C//DTD SVG 1.1//EN" "http://www.w3.org/Graphics/SVG/1.1/DTD/svg11.dtd">
<svg width="1161pt" height="1161pt" viewBox="0 0 1161 1161" version="1.1" xmlns="http://www.w3.org/2000/svg">
<g id="#475dd5ff">
<path fill="#475dd5" opacity="1.00" d=" M 568.46 1.65 C 588.36 -2.53 610.08 4.11 624.21 18.74 C 796.57 191.06 968.89 363.43 1141.26 535.76 C 1146.79 541.09 1151.53 547.29 1154.79 554.28 C 1165.98 576.95 1160.95 606.23 1142.81 623.84 C 969.97 796.69 797.14 969.52 624.29 1142.36 C 613.73 1153.18 599.08 1159.89 583.96 1160.63 C 570.11 1161.43 556.05 1157.34 544.83 1149.19 C 539.61 1145.48 535.31 1140.68 530.75 1136.23 C 362.28 967.74 193.77 799.28 25.31 630.78 C 19.26 624.77 12.88 618.88 8.72 611.34 C -1.46 594.12 -2.30 571.84 6.56 553.91 C 9.88 546.90 14.72 540.70 20.32 535.37 C 192.85 362.88 365.34 190.34 537.87 17.84 C 546.21 9.63 556.98 3.94 568.46 1.65 M 363.41 370.68 C 354.20 373.06 346.18 379.89 342.88 388.88 C 337.47 401.62 342.55 417.56 354.05 425.14 C 365.73 433.27 383.11 431.42 392.84 421.04 C 401.63 412.01 403.84 397.19 397.89 386.06 C 391.76 373.79 376.65 366.99 363.41 370.68 M 460.79 369.82 C 460.75 389.94 460.84 410.06 460.82 430.18 C 580.94 430.14 701.06 430.29 821.18 430.18 C 821.17 410.06 821.17 389.94 821.18 369.82 C 701.05 369.83 580.92 369.83 460.79 369.82 M 363.46 490.63 C 350.45 493.79 340.35 506.58 340.80 520.03 C 340.45 531.85 348.25 543.32 359.09 547.87 C 371.01 553.04 386.23 549.49 394.39 539.29 C 400.01 532.64 402.19 523.49 400.81 514.95 C 399.41 505.18 392.61 496.41 383.58 492.48 C 377.33 489.62 370.12 489.04 363.46 490.63 M 460.84 489.84 C 460.81 509.95 460.81 530.05 460.84 550.16 C 580.95 550.13 701.05 550.23 821.16 550.20 C 821.16 530.07 821.16 509.93 821.16 489.80 C 701.05 489.76 580.95 489.85 460.84 489.84 M 363.41 610.65 C 353.37 613.11 345.20 621.19 342.06 630.96 C 337.76 644.03 343.81 659.43 355.76 666.19 C 367.80 673.45 384.81 670.63 393.88 659.89 C 399.63 653.43 402.08 644.42 400.95 635.89 C 399.82 625.76 392.91 616.52 383.57 612.48 C 377.31 609.61 370.08 609.04 363.41 610.65 M 460.84 609.84 C 460.81 629.95 460.81 650.05 460.84 670.16 C 580.95 670.14 701.05 670.24 821.16 670.20 C 821.16 650.07 821.16 629.93 821.16 609.80 C 701.05 609.76 580.95 609.85 460.84 609.84 M 363.46 730.64 C 355.65 732.62 348.72 737.81 344.82 744.88 C 337.28 757.10 340.53 774.42 351.69 783.36 C 358.98 789.37 369.13 791.66 378.31 789.42 C 386.78 787.12 394.45 781.32 398.21 773.29 C 404.44 760.96 400.77 744.57 389.75 736.17 C 382.46 730.40 372.45 728.47 363.46 730.64 M 460.82 729.82 C 460.84 749.94 460.76 770.06 460.78 790.18 C 580.92 790.17 701.05 790.17 821.18 790.18 C 821.17 770.04 821.17 749.91 821.18 729.78 C 701.06 729.76 580.94 729.85 460.82 729.82 Z" />
</g>
<g id="#ffffffff">
<path fill="#ffffff" opacity="1.00" d=" M 363.41 370.68 C 376.65 366.99 391.76 373.79 397.89 386.06 C 403.84 397.19 401.63 412.01 392.84 421.04 C 383.11 431.42 365.73 433.27 354.05 425.14 C 342.55 417.56 337.47 401.62 342.88 388.88 C 346.18 379.89 354.20 373.06 363.41 370.68 Z" />
<path fill="#ffffff" opacity="1.00" d=" M 460.79 369.82 C 580.92 369.83 701.05 369.83 821.18 369.82 C 821.17 389.94 821.17 410.06 821.18 430.18 C 701.06 430.29 580.94 430.14 460.82 430.18 C 460.84 410.06 460.75 389.94 460.79 369.82 Z" />
<path fill="#ffffff" opacity="1.00" d=" M 363.46 490.63 C 370.12 489.04 377.33 489.62 383.58 492.48 C 392.61 496.41 399.41 505.18 400.81 514.95 C 402.19 523.49 400.01 532.64 394.39 539.29 C 386.23 549.49 371.01 553.04 359.09 547.87 C 348.25 543.32 340.45 531.85 340.80 520.03 C 340.35 506.58 350.45 493.79 363.46 490.63 Z" />
<path fill="#ffffff" opacity="1.00" d=" M 460.84 489.84 C 580.95 489.85 701.05 489.76 821.16 489.80 C 821.16 509.93 821.16 530.07 821.16 550.20 C 701.05 550.23 580.95 550.13 460.84 550.16 C 460.81 530.05 460.81 509.95 460.84 489.84 Z" />
<path fill="#ffffff" opacity="1.00" d=" M 363.41 610.65 C 370.08 609.04 377.31 609.61 383.57 612.48 C 392.91 616.52 399.82 625.76 400.95 635.89 C 402.08 644.42 399.63 653.43 393.88 659.89 C 384.81 670.63 367.80 673.45 355.76 666.19 C 343.81 659.43 337.76 644.03 342.06 630.96 C 345.20 621.19 353.37 613.11 363.41 610.65 Z" />
<path fill="#ffffff" opacity="1.00" d=" M 460.84 609.84 C 580.95 609.85 701.05 609.76 821.16 609.80 C 821.16 629.93 821.16 650.07 821.16 670.20 C 701.05 670.24 580.95 670.14 460.84 670.16 C 460.81 650.05 460.81 629.95 460.84 609.84 Z" />
<path fill="#ffffff" opacity="1.00" d=" M 363.46 730.64 C 372.45 728.47 382.46 730.40 389.75 736.17 C 400.77 744.57 404.44 760.96 398.21 773.29 C 394.45 781.32 386.78 787.12 378.31 789.42 C 369.13 791.66 358.98 789.37 351.69 783.36 C 340.53 774.42 337.28 757.10 344.82 744.88 C 348.72 737.81 355.65 732.62 363.46 730.64 Z" />
<path fill="#ffffff" opacity="1.00" d=" M 460.82 729.82 C 580.94 729.85 701.06 729.76 821.18 729.78 C 821.17 749.91 821.17 770.04 821.18 790.18 C 701.05 790.17 580.92 790.17 460.78 790.18 C 460.76 770.06 460.84 749.94 460.82 729.82 Z" />
</g>
</svg>
