<?xml version="1.0" encoding="UTF-8" ?>
<!DOCTYPE svg PUBLIC "-//W3C//DTD SVG 1.1//EN" "http://www.w3.org/Graphics/SVG/1.1/DTD/svg11.dtd">
<svg width="1161pt" height="1161pt" viewBox="0 0 1161 1161" version="1.1" xmlns="http://www.w3.org/2000/svg">
<g id="#475dd5ff">
<path fill="#475dd5" opacity="1.00" d=" M 568.45 1.65 C 588.35 -2.54 610.07 4.11 624.21 18.74 C 796.06 190.56 967.89 362.42 1139.74 534.25 C 1144.72 539.03 1149.37 544.25 1152.73 550.31 C 1161.13 564.88 1162.99 582.96 1157.92 598.98 C 1154.90 608.55 1149.49 617.34 1142.31 624.36 C 969.48 797.17 796.67 970.00 623.84 1142.81 C 613.56 1153.14 599.51 1159.61 584.95 1160.57 C 570.79 1161.62 556.31 1157.54 544.82 1149.18 C 539.60 1145.48 535.32 1140.68 530.76 1136.24 C 362.44 967.90 194.09 799.60 25.78 631.25 C 22.45 627.87 18.98 624.64 15.81 621.11 C 5.58 609.71 0.00 594.30 0.46 579.00 C 0.80 563.51 7.32 548.26 18.33 537.37 C 190.51 365.19 362.70 193.03 534.86 20.83 C 543.74 11.19 555.53 4.16 568.45 1.65 M 397.79 313.96 C 397.80 480.67 397.74 647.39 397.77 814.10 C 386.66 814.21 375.55 814.07 364.44 814.18 C 364.46 825.30 364.45 836.43 364.45 847.55 C 420.06 847.53 475.67 847.57 531.29 847.53 C 531.31 814.19 531.21 780.85 531.34 747.51 C 548.53 747.59 565.73 747.53 582.92 747.55 C 582.01 736.47 579.76 725.11 582.91 714.17 C 565.70 714.04 548.49 714.24 531.28 714.06 C 531.27 691.89 531.30 669.73 531.27 647.56 C 556.27 647.52 581.28 647.58 606.29 647.53 C 621.18 625.84 641.30 607.71 664.70 595.63 C 664.74 579.60 664.64 563.58 664.72 547.55 C 686.89 547.55 709.06 547.54 731.24 547.56 C 731.24 558.63 731.24 569.70 731.24 580.77 C 742.48 580.78 753.62 582.43 764.73 584.03 C 764.70 494.01 764.73 403.98 764.71 313.95 C 642.40 313.95 520.10 313.94 397.79 313.96 M 721.40 614.47 C 702.87 616.06 684.72 622.11 669.04 632.12 C 641.44 649.43 621.66 678.78 616.26 710.94 C 610.25 744.61 620.14 780.65 642.56 806.48 C 661.46 828.67 688.85 843.58 717.88 846.74 C 748.82 850.61 781.06 840.95 805.06 821.09 C 824.97 804.92 839.39 782.02 845.01 756.96 C 850.14 736.24 848.77 714.21 842.05 694.01 C 832.54 664.92 810.88 640.22 783.58 626.49 C 764.53 616.72 742.70 612.70 721.40 614.47 M 632.04 846.75 C 632.64 846.83 633.86 846.99 634.46 847.08 C 634.91 844.47 629.61 843.13 632.04 846.75 Z" />
<path fill="#475dd5" opacity="1.00" d=" M 431.29 347.39 C 453.46 347.31 475.64 347.39 497.81 347.35 C 497.82 369.55 497.80 391.75 497.82 413.95 C 475.63 413.95 453.44 413.95 431.25 413.95 C 431.29 391.76 431.22 369.57 431.29 347.39 Z" />
<path fill="#475dd5" opacity="1.00" d=" M 531.32 347.40 C 564.64 347.43 597.98 347.14 631.28 347.54 C 631.14 369.67 631.25 391.81 631.20 413.95 C 597.89 413.95 564.58 413.95 531.28 413.95 C 531.29 391.76 531.26 369.58 531.32 347.40 Z" />
<path fill="#475dd5" opacity="1.00" d=" M 664.67 347.38 C 686.88 347.44 709.10 347.15 731.29 347.52 C 731.16 369.66 731.27 391.81 731.24 413.95 C 709.05 413.95 686.87 413.95 664.69 413.95 C 664.69 391.76 664.71 369.57 664.67 347.38 Z" />
<path fill="#475dd5" opacity="1.00" d=" M 431.27 447.56 C 453.45 447.26 475.63 447.41 497.81 447.36 C 497.82 469.56 497.80 491.75 497.82 513.95 C 475.63 513.95 453.44 513.96 431.25 513.95 C 431.26 491.82 431.29 469.69 431.27 447.56 Z" />
<path fill="#475dd5" opacity="1.00" d=" M 531.31 447.40 C 564.56 447.31 597.81 447.45 631.06 447.33 C 631.43 469.53 631.11 491.74 631.22 513.95 C 597.92 513.95 564.61 513.96 531.31 513.94 C 531.28 491.76 531.25 469.58 531.31 447.40 Z" />
<path fill="#475dd5" opacity="1.00" d=" M 664.68 447.39 C 686.89 447.47 709.11 447.13 731.31 447.56 C 731.14 469.69 731.28 491.82 731.24 513.95 C 709.05 513.95 686.87 513.95 664.68 513.95 C 664.69 491.76 664.70 469.58 664.68 447.39 Z" />
<path fill="#475dd5" opacity="1.00" d=" M 531.31 547.40 C 564.61 547.59 597.91 547.55 631.22 547.56 C 631.21 569.74 631.23 591.92 631.21 614.11 C 597.91 614.12 564.60 614.17 531.30 614.09 C 531.27 591.86 531.26 569.63 531.31 547.40 Z" />
<path fill="#475dd5" opacity="1.00" d=" M 431.38 613.91 C 431.39 591.78 431.29 569.66 431.41 547.54 C 453.51 547.62 475.62 547.50 497.73 547.60 C 497.69 569.71 497.76 591.82 497.75 613.93 C 475.63 613.92 453.51 613.96 431.38 613.91 Z" />
<path fill="#475dd5" opacity="1.00" d=" M 431.25 647.56 C 453.44 647.54 475.63 647.54 497.82 647.56 C 497.79 669.69 497.81 691.82 497.82 713.95 C 475.64 714.23 453.46 714.14 431.28 714.07 C 431.24 691.90 431.29 669.73 431.25 647.56 Z" />
<path fill="#475dd5" opacity="1.00" d=" M 714.74 647.56 C 725.78 647.54 736.82 647.56 747.86 647.55 C 747.84 669.79 747.88 692.02 747.83 714.26 C 770.10 714.22 792.37 714.24 814.64 714.24 C 814.60 725.28 814.67 736.33 814.60 747.37 C 792.36 747.34 770.12 747.35 747.87 747.40 C 747.83 769.63 747.87 791.87 747.85 814.11 C 736.81 814.10 725.78 814.11 714.74 814.10 C 714.73 791.84 714.72 769.58 714.76 747.32 C 692.53 747.38 670.29 747.34 648.06 747.37 C 648.05 736.32 648.05 725.27 648.06 714.23 C 670.27 714.25 692.49 714.25 714.71 714.20 C 714.74 691.99 714.74 669.77 714.74 647.56 Z" />
<path fill="#475dd5" opacity="1.00" d=" M 431.22 747.61 C 453.42 747.47 475.62 747.58 497.82 747.55 C 497.80 769.75 497.82 791.95 497.81 814.15 C 475.63 814.11 453.46 814.19 431.28 814.11 C 431.21 791.94 431.33 769.77 431.22 747.61 Z" />
</g>
<g id="#ffffffff">
<path fill="#ffffff" opacity="1.00" d=" M 397.79 313.96 C 520.10 313.94 642.40 313.95 764.71 313.95 C 764.73 403.98 764.70 494.01 764.73 584.03 C 753.62 582.43 742.48 580.78 731.24 580.77 C 731.24 569.70 731.24 558.63 731.24 547.56 C 709.06 547.54 686.89 547.55 664.72 547.55 C 664.64 563.58 664.74 579.60 664.70 595.63 C 641.30 607.71 621.18 625.84 606.29 647.53 C 581.28 647.58 556.27 647.52 531.27 647.56 C 531.30 669.73 531.27 691.89 531.28 714.06 C 548.49 714.24 565.70 714.04 582.91 714.17 C 579.76 725.11 582.01 736.47 582.92 747.55 C 565.73 747.53 548.53 747.59 531.34 747.51 C 531.21 780.85 531.31 814.19 531.29 847.53 C 475.67 847.57 420.06 847.53 364.45 847.55 C 364.45 836.43 364.46 825.30 364.44 814.18 C 375.55 814.07 386.66 814.21 397.77 814.10 C 397.74 647.39 397.80 480.67 397.79 313.96 M 431.29 347.39 C 431.22 369.57 431.29 391.76 431.25 413.95 C 453.44 413.95 475.63 413.95 497.82 413.95 C 497.80 391.75 497.82 369.55 497.81 347.35 C 475.64 347.39 453.46 347.31 431.29 347.39 M 531.32 347.40 C 531.26 369.58 531.29 391.76 531.28 413.95 C 564.58 413.95 597.89 413.95 631.20 413.95 C 631.25 391.81 631.14 369.67 631.28 347.54 C 597.98 347.14 564.64 347.43 531.32 347.40 M 664.67 347.38 C 664.71 369.57 664.69 391.76 664.69 413.95 C 686.87 413.95 709.05 413.95 731.24 413.95 C 731.27 391.81 731.16 369.66 731.29 347.52 C 709.10 347.15 686.88 347.44 664.67 347.38 M 431.27 447.56 C 431.29 469.69 431.26 491.82 431.25 513.95 C 453.44 513.96 475.63 513.95 497.82 513.95 C 497.80 491.75 497.82 469.56 497.81 447.36 C 475.63 447.41 453.45 447.26 431.27 447.56 M 531.31 447.40 C 531.25 469.58 531.28 491.76 531.31 513.94 C 564.61 513.96 597.92 513.95 631.22 513.95 C 631.11 491.74 631.43 469.53 631.06 447.33 C 597.81 447.45 564.56 447.31 531.31 447.40 M 664.68 447.39 C 664.70 469.58 664.69 491.76 664.68 513.95 C 686.87 513.95 709.05 513.95 731.24 513.95 C 731.28 491.82 731.14 469.69 731.31 447.56 C 709.11 447.13 686.89 447.47 664.68 447.39 M 531.31 547.40 C 531.26 569.63 531.27 591.86 531.30 614.09 C 564.60 614.17 597.91 614.12 631.21 614.11 C 631.23 591.92 631.21 569.74 631.22 547.56 C 597.91 547.55 564.61 547.59 531.31 547.40 M 431.38 613.91 C 453.51 613.96 475.63 613.92 497.75 613.93 C 497.76 591.82 497.69 569.71 497.73 547.60 C 475.62 547.50 453.51 547.62 431.41 547.54 C 431.29 569.66 431.39 591.78 431.38 613.91 M 431.25 647.56 C 431.29 669.73 431.24 691.90 431.28 714.07 C 453.46 714.14 475.64 714.23 497.82 713.95 C 497.81 691.82 497.79 669.69 497.82 647.56 C 475.63 647.54 453.44 647.54 431.25 647.56 M 431.22 747.61 C 431.33 769.77 431.21 791.94 431.28 814.11 C 453.46 814.19 475.63 814.11 497.81 814.15 C 497.82 791.95 497.80 769.75 497.82 747.55 C 475.62 747.58 453.42 747.47 431.22 747.61 Z" />
<path fill="#ffffff" opacity="1.00" d=" M 721.40 614.47 C 742.70 612.70 764.53 616.72 783.58 626.49 C 810.88 640.22 832.54 664.92 842.05 694.01 C 848.77 714.21 850.14 736.24 845.01 756.96 C 839.39 782.02 824.97 804.92 805.06 821.09 C 781.06 840.95 748.82 850.61 717.88 846.74 C 688.85 843.58 661.46 828.67 642.56 806.48 C 620.14 780.65 610.25 744.61 616.26 710.94 C 621.66 678.78 641.44 649.43 669.04 632.12 C 684.72 622.11 702.87 616.06 721.40 614.47 M 714.74 647.56 C 714.74 669.77 714.74 691.99 714.71 714.20 C 692.49 714.25 670.27 714.25 648.06 714.23 C 648.05 725.27 648.05 736.32 648.06 747.37 C 670.29 747.34 692.53 747.38 714.76 747.32 C 714.72 769.58 714.73 791.84 714.74 814.10 C 725.78 814.11 736.81 814.10 747.85 814.11 C 747.87 791.87 747.83 769.63 747.87 747.40 C 770.12 747.35 792.36 747.34 814.60 747.37 C 814.67 736.33 814.60 725.28 814.64 714.24 C 792.37 714.24 770.10 714.22 747.83 714.26 C 747.88 692.02 747.84 669.79 747.86 647.55 C 736.82 647.56 725.78 647.54 714.74 647.56 Z" />
<path fill="#ffffff" opacity="1.00" d=" M 632.04 846.75 C 629.61 843.13 634.91 844.47 634.46 847.08 C 633.86 846.99 632.64 846.83 632.04 846.75 Z" />
</g>
</svg>
