<?xml version="1.0" encoding="UTF-8" ?>
<!DOCTYPE svg PUBLIC "-//W3C//DTD SVG 1.1//EN" "http://www.w3.org/Graphics/SVG/1.1/DTD/svg11.dtd">
<svg width="1161pt" height="1161pt" viewBox="0 0 1161 1161" version="1.1" xmlns="http://www.w3.org/2000/svg">
<g id="#475dd5ff">
<path fill="#475dd5" opacity="1.00" d=" M 568.49 1.64 C 588.42 -2.54 610.15 4.14 624.27 18.80 C 797.10 191.60 969.91 364.43 1142.73 537.24 C 1154.26 548.63 1160.92 564.73 1160.73 580.94 C 1160.70 593.77 1156.47 606.54 1148.83 616.85 C 1144.79 622.42 1139.54 626.92 1134.80 631.86 C 967.48 799.19 800.14 966.50 632.82 1133.84 C 626.54 1139.90 620.79 1146.69 613.25 1151.28 C 596.49 1162.07 574.32 1163.72 556.12 1155.62 C 548.64 1152.41 541.92 1147.57 536.26 1141.73 C 364.41 969.91 192.58 798.06 20.73 626.23 C 14.89 620.68 9.80 614.27 6.40 606.93 C -2.43 588.81 -1.34 566.32 9.14 549.11 C 13.53 541.44 20.21 535.56 26.35 529.35 C 196.84 358.87 367.33 188.37 537.82 17.89 C 546.18 9.65 556.98 3.93 568.49 1.64 M 354.40 303.46 C 354.39 474.57 354.34 645.68 354.46 816.78 C 422.95 816.81 491.44 816.82 559.93 816.81 C 577.53 817.07 595.16 816.32 612.75 817.15 C 625.23 838.63 643.31 856.76 664.62 869.50 C 688.37 883.81 716.27 890.85 743.94 890.05 C 781.10 889.02 817.56 873.06 843.57 846.49 C 869.68 820.32 885.35 784.01 886.05 747.02 C 886.82 719.13 879.31 691.05 864.72 667.26 C 848.49 640.76 823.77 619.37 794.90 607.73 C 794.14 603.52 794.41 599.24 794.38 595.00 C 794.39 532.68 794.38 470.36 794.39 408.05 C 794.35 403.75 794.98 399.34 794.00 395.12 C 790.00 390.69 784.89 387.46 780.50 383.44 C 749.50 357.47 718.17 331.89 687.43 305.62 C 686.31 304.83 685.38 303.37 683.88 303.46 C 574.05 303.47 464.23 303.46 354.40 303.46 Z" />
<path fill="#475dd5" opacity="1.00" d=" M 391.29 340.29 C 450.53 340.31 509.77 340.29 569.01 340.30 C 607.46 340.40 645.92 340.10 684.36 340.45 C 684.20 358.73 684.19 377.02 684.39 395.30 C 708.78 395.26 733.18 395.21 757.58 395.34 C 757.66 462.81 757.65 530.28 757.58 597.75 C 723.77 593.52 688.54 601.41 659.99 620.06 C 629.21 639.81 606.27 671.42 597.24 706.89 C 591.00 730.70 591.35 756.01 597.16 779.88 C 528.54 779.96 459.91 780.04 391.29 779.90 C 391.29 633.36 391.23 486.83 391.29 340.29 M 427.76 431.76 C 427.71 517.29 427.73 602.82 427.76 688.35 C 452.52 688.46 477.28 688.19 502.03 688.55 C 529.30 688.46 556.56 688.32 583.83 688.34 C 588.72 675.58 594.76 663.28 602.13 651.76 C 556.27 651.62 510.41 651.78 464.54 651.66 C 464.85 642.42 463.85 633.16 464.94 623.95 C 468.97 619.97 473.76 616.78 478.05 613.06 C 494.69 599.70 511.44 586.49 528.08 573.12 C 530.87 570.93 533.50 568.48 536.66 566.82 C 556.72 586.61 576.54 606.65 596.44 626.61 C 596.86 626.90 597.72 627.49 598.15 627.79 C 606.79 619.38 615.43 610.96 623.66 602.15 C 621.37 598.20 617.12 596.00 614.64 592.21 C 619.98 588.53 625.23 584.67 630.85 581.40 C 641.21 586.22 651.18 591.86 661.61 596.52 C 663.57 597.50 665.49 595.87 667.29 595.22 C 684.03 586.80 702.37 581.72 720.96 579.54 C 721.31 530.29 721.11 481.02 721.09 431.77 C 623.31 431.72 525.54 431.72 427.76 431.76 Z" />
<path fill="#475dd5" opacity="1.00" d=" M 464.57 468.57 C 537.76 468.64 610.94 468.44 684.13 468.70 C 684.29 501.35 684.19 534.00 684.13 566.66 C 665.43 557.62 647.05 547.93 628.26 539.09 C 614.56 547.38 601.43 556.56 588.12 565.44 C 583.74 561.97 580.11 557.70 576.08 553.86 C 566.25 544.03 556.40 534.23 546.59 524.39 C 544.12 521.95 541.78 519.35 538.98 517.28 C 513.97 536.53 489.85 556.94 464.83 576.17 C 464.32 540.30 464.69 504.44 464.57 468.57 M 590.33 494.49 C 582.75 497.07 577.43 505.04 578.07 513.05 C 578.35 522.32 586.76 530.46 596.04 530.45 C 606.38 531.09 616.02 521.37 614.97 510.99 C 614.97 499.10 601.30 490.16 590.33 494.49 Z" />
<path fill="#475dd5" opacity="1.00" d=" M 723.41 634.68 C 745.31 631.58 768.24 634.93 788.02 644.96 C 810.93 656.19 829.52 675.74 839.88 699.03 C 851.49 725.23 852.21 756.02 841.91 782.76 C 832.91 805.93 815.93 825.95 794.36 838.35 C 767.82 854.01 734.47 857.51 705.25 847.76 C 678.48 839.02 655.32 819.63 642.30 794.63 C 631.46 774.05 627.02 749.95 630.82 726.93 C 635.20 696.07 653.81 667.75 680.01 651.00 C 693.11 642.58 707.99 636.92 723.41 634.68 M 674.70 704.34 C 682.09 712.60 690.20 720.19 697.99 728.06 C 702.93 733.23 708.46 737.92 712.80 743.61 C 700.45 756.73 687.15 768.91 674.84 782.08 C 682.80 791.24 691.78 799.49 700.42 808.02 C 713.79 795.88 725.76 782.28 739.08 770.10 L 739.69 770.09 C 753.08 782.25 764.86 796.19 778.60 807.93 C 787.04 799.34 795.91 791.14 804.00 782.20 C 791.87 769.27 778.84 757.22 766.64 744.36 C 765.18 743.37 766.84 742.25 767.51 741.48 C 779.44 728.96 792.08 717.16 803.99 704.63 C 795.72 695.68 787.16 686.93 778.08 678.82 C 764.72 691.07 752.79 704.81 739.25 716.86 C 726.05 704.45 713.70 691.18 700.60 678.67 C 691.65 686.90 683.26 695.72 674.70 704.34 Z" />
</g>
<g id="#ffffffff">
<path fill="#ffffff" opacity="1.00" d=" M 354.40 303.46 C 464.23 303.46 574.05 303.47 683.88 303.46 C 685.38 303.37 686.31 304.83 687.43 305.62 C 718.17 331.89 749.50 357.47 780.50 383.44 C 784.89 387.46 790.00 390.69 794.00 395.12 C 794.98 399.34 794.35 403.75 794.39 408.05 C 794.38 470.36 794.39 532.68 794.38 595.00 C 794.41 599.24 794.14 603.52 794.90 607.73 C 823.77 619.37 848.49 640.76 864.72 667.26 C 879.31 691.05 886.82 719.13 886.05 747.02 C 885.35 784.01 869.68 820.32 843.57 846.49 C 817.56 873.06 781.10 889.02 743.94 890.05 C 716.27 890.85 688.37 883.81 664.62 869.50 C 643.31 856.76 625.23 838.63 612.75 817.15 C 595.16 816.32 577.53 817.07 559.93 816.81 C 491.44 816.82 422.95 816.81 354.46 816.78 C 354.34 645.68 354.39 474.57 354.40 303.46 M 391.29 340.29 C 391.23 486.83 391.29 633.36 391.29 779.90 C 459.91 780.04 528.54 779.96 597.16 779.88 C 591.35 756.01 591.00 730.70 597.24 706.89 C 606.27 671.42 629.21 639.81 659.99 620.06 C 688.54 601.41 723.77 593.52 757.58 597.75 C 757.65 530.28 757.66 462.81 757.58 395.34 C 733.18 395.21 708.78 395.26 684.39 395.30 C 684.19 377.02 684.20 358.73 684.36 340.45 C 645.92 340.10 607.46 340.40 569.01 340.30 C 509.77 340.29 450.53 340.31 391.29 340.29 M 723.41 634.68 C 707.99 636.92 693.11 642.58 680.01 651.00 C 653.81 667.75 635.20 696.07 630.82 726.93 C 627.02 749.95 631.46 774.05 642.30 794.63 C 655.32 819.63 678.48 839.02 705.25 847.76 C 734.47 857.51 767.82 854.01 794.36 838.35 C 815.93 825.95 832.91 805.93 841.91 782.76 C 852.21 756.02 851.49 725.23 839.88 699.03 C 829.52 675.74 810.93 656.19 788.02 644.96 C 768.24 634.93 745.31 631.58 723.41 634.68 Z" />
<path fill="#ffffff" opacity="1.00" d=" M 427.76 431.76 C 525.54 431.72 623.31 431.72 721.09 431.77 C 721.11 481.02 721.31 530.29 720.96 579.54 C 702.37 581.72 684.03 586.80 667.29 595.22 C 665.49 595.87 663.57 597.50 661.61 596.52 C 651.18 591.86 641.21 586.22 630.85 581.40 C 625.23 584.67 619.98 588.53 614.64 592.21 C 617.12 596.00 621.37 598.20 623.66 602.15 C 615.43 610.96 606.79 619.38 598.15 627.79 C 597.72 627.49 596.86 626.90 596.44 626.61 C 576.54 606.65 556.72 586.61 536.66 566.82 C 533.50 568.48 530.87 570.93 528.08 573.12 C 511.44 586.49 494.69 599.70 478.05 613.06 C 473.76 616.78 468.97 619.97 464.94 623.95 C 463.85 633.16 464.85 642.42 464.54 651.66 C 510.41 651.78 556.27 651.62 602.13 651.76 C 594.76 663.28 588.72 675.58 583.83 688.34 C 556.56 688.32 529.30 688.46 502.03 688.55 C 477.28 688.19 452.52 688.46 427.76 688.35 C 427.73 602.82 427.71 517.29 427.76 431.76 M 464.57 468.57 C 464.69 504.44 464.32 540.30 464.83 576.17 C 489.85 556.94 513.97 536.53 538.98 517.28 C 541.78 519.35 544.12 521.95 546.59 524.39 C 556.40 534.23 566.25 544.03 576.08 553.86 C 580.11 557.70 583.74 561.97 588.12 565.44 C 601.43 556.56 614.56 547.38 628.26 539.09 C 647.05 547.93 665.43 557.62 684.13 566.66 C 684.19 534.00 684.29 501.35 684.13 468.70 C 610.94 468.44 537.76 468.64 464.57 468.57 Z" />
<path fill="#ffffff" opacity="1.00" d=" M 590.33 494.49 C 601.30 490.16 614.97 499.10 614.97 510.99 C 616.02 521.37 606.38 531.09 596.04 530.45 C 586.76 530.46 578.35 522.32 578.07 513.05 C 577.43 505.04 582.75 497.07 590.33 494.49 Z" />
<path fill="#ffffff" opacity="1.00" d=" M 674.70 704.34 C 683.26 695.72 691.65 686.90 700.60 678.67 C 713.70 691.18 726.05 704.45 739.25 716.86 C 752.79 704.81 764.72 691.07 778.08 678.82 C 787.16 686.93 795.72 695.68 803.99 704.63 C 792.08 717.16 779.44 728.96 767.51 741.48 C 766.84 742.25 765.18 743.37 766.64 744.36 C 778.84 757.22 791.87 769.27 804.00 782.20 C 795.91 791.14 787.04 799.34 778.60 807.93 C 764.86 796.19 753.08 782.25 739.69 770.09 L 739.08 770.10 C 725.76 782.28 713.79 795.88 700.42 808.02 C 691.78 799.49 682.80 791.24 674.84 782.08 C 687.15 768.91 700.45 756.73 712.80 743.61 C 708.46 737.92 702.93 733.23 697.99 728.06 C 690.20 720.19 682.09 712.60 674.70 704.34 Z" />
</g>
</svg>
