<?xml version="1.0" encoding="UTF-8" ?>
<!DOCTYPE svg PUBLIC "-//W3C//DTD SVG 1.1//EN" "http://www.w3.org/Graphics/SVG/1.1/DTD/svg11.dtd">
<svg width="1161pt" height="1161pt" viewBox="0 0 1161 1161" version="1.1" xmlns="http://www.w3.org/2000/svg">
<g id="#475dd5ff">
<path fill="#475dd5" opacity="1.00" d=" M 568.54 1.63 C 588.41 -2.51 610.07 4.12 624.18 18.71 C 797.06 191.56 969.91 364.43 1142.78 537.29 C 1154.76 549.14 1161.43 566.10 1160.68 582.94 C 1160.26 594.85 1156.24 606.58 1149.27 616.25 C 1145.03 622.26 1139.39 627.06 1134.32 632.34 C 964.16 802.50 793.99 972.67 623.82 1142.82 C 613.32 1153.38 598.87 1159.89 583.98 1160.63 C 570.13 1161.44 556.06 1157.35 544.84 1149.20 C 539.60 1145.49 535.31 1140.67 530.74 1136.22 C 361.59 967.06 192.42 797.92 23.28 628.76 C 18.94 624.45 14.47 620.19 11.07 615.07 C 2.72 602.91 -0.96 587.68 0.91 573.05 C 2.51 559.64 8.77 546.84 18.37 537.34 C 190.68 365.01 363.02 192.71 535.32 20.37 C 544.12 10.90 555.82 4.10 568.54 1.63 M 564.44 331.74 C 544.13 334.53 524.75 343.09 508.67 355.77 C 479.73 378.38 462.75 415.28 464.56 451.98 C 465.78 487.03 484.04 521.00 512.59 541.36 C 545.59 565.84 591.90 570.61 629.13 553.16 C 663.10 537.99 688.66 505.62 695.41 469.02 C 702.89 431.99 690.53 391.85 663.75 365.26 C 638.50 339.09 600.37 326.40 564.44 331.74 M 435.82 596.73 C 430.31 606.02 429.47 617.99 433.89 627.87 C 437.28 635.84 444.57 641.16 452.06 644.95 C 477.80 658.15 504.64 668.99 531.14 680.54 C 510.90 706.80 490.28 732.77 469.94 758.96 C 463.85 766.90 457.21 774.51 452.32 783.29 C 450.05 787.56 448.10 792.17 447.80 797.06 C 447.57 808.43 453.87 819.60 463.58 825.47 C 476.34 833.55 494.97 831.68 505.02 820.10 C 530.34 790.15 555.51 760.07 580.98 730.25 C 604.57 757.89 627.92 785.75 651.36 813.52 C 655.20 817.98 658.69 823.00 663.94 825.94 C 675.85 833.05 692.07 831.55 702.53 822.46 C 711.81 814.52 717.21 800.64 712.27 788.92 C 707.58 777.15 698.76 767.79 691.21 757.84 C 671.15 731.99 650.71 706.43 630.90 680.41 C 658.96 668.31 687.45 657.02 714.38 642.48 C 719.28 639.94 723.34 635.93 726.21 631.22 C 732.58 620.91 732.47 607.14 726.21 596.81 C 718.91 584.86 703.19 577.11 689.57 582.48 C 679.68 586.82 670.13 591.89 660.28 596.33 C 621.29 614.96 575.70 618.87 533.94 608.00 C 516.48 603.61 500.08 595.99 484.10 587.83 C 477.36 584.79 470.67 580.60 463.02 580.67 C 452.01 580.90 441.50 587.37 435.82 596.73 Z" />
<path fill="#475dd5" opacity="1.00" d=" M 570.38 389.47 C 596.76 383.91 625.22 400.05 635.29 424.79 C 640.05 436.92 641.25 450.69 637.32 463.23 C 631.80 481.80 616.92 497.62 598.22 503.22 C 588.60 505.92 578.27 506.75 568.48 504.43 C 551.53 500.55 536.49 488.94 528.54 473.46 C 523.28 463.28 521.49 451.46 522.72 440.11 C 525.64 415.42 545.63 393.46 570.38 389.47 Z" />
</g>
<g id="#ffffffff">
<path fill="#ffffff" opacity="1.00" d=" M 564.44 331.74 C 600.37 326.40 638.50 339.09 663.75 365.26 C 690.53 391.85 702.89 431.99 695.41 469.02 C 688.66 505.62 663.10 537.99 629.13 553.16 C 591.90 570.61 545.59 565.84 512.59 541.36 C 484.04 521.00 465.78 487.03 464.56 451.98 C 462.75 415.28 479.73 378.38 508.67 355.77 C 524.75 343.09 544.13 334.53 564.44 331.74 M 570.38 389.47 C 545.63 393.46 525.64 415.42 522.72 440.11 C 521.49 451.46 523.28 463.28 528.54 473.46 C 536.49 488.94 551.53 500.55 568.48 504.43 C 578.27 506.75 588.60 505.92 598.22 503.22 C 616.92 497.62 631.80 481.80 637.32 463.23 C 641.25 450.69 640.05 436.92 635.29 424.79 C 625.22 400.05 596.76 383.91 570.38 389.47 Z" />
<path fill="#ffffff" opacity="1.00" d=" M 435.82 596.73 C 441.50 587.37 452.01 580.90 463.02 580.67 C 470.67 580.60 477.36 584.79 484.10 587.83 C 500.08 595.99 516.48 603.61 533.94 608.00 C 575.70 618.87 621.29 614.96 660.28 596.33 C 670.13 591.89 679.68 586.82 689.57 582.48 C 703.19 577.11 718.91 584.86 726.21 596.81 C 732.47 607.14 732.58 620.91 726.21 631.22 C 723.34 635.93 719.28 639.94 714.38 642.48 C 687.45 657.02 658.96 668.31 630.90 680.41 C 650.71 706.43 671.15 731.99 691.21 757.84 C 698.76 767.79 707.58 777.15 712.27 788.92 C 717.21 800.64 711.81 814.52 702.53 822.46 C 692.07 831.55 675.85 833.05 663.94 825.94 C 658.69 823.00 655.20 817.98 651.36 813.52 C 627.92 785.75 604.57 757.89 580.98 730.25 C 555.51 760.07 530.34 790.15 505.02 820.10 C 494.97 831.68 476.34 833.55 463.58 825.47 C 453.87 819.60 447.57 808.43 447.80 797.06 C 448.10 792.17 450.05 787.56 452.32 783.29 C 457.21 774.51 463.85 766.90 469.94 758.96 C 490.28 732.77 510.90 706.80 531.14 680.54 C 504.64 668.99 477.80 658.15 452.06 644.95 C 444.57 641.16 437.28 635.84 433.89 627.87 C 429.47 617.99 430.31 606.02 435.82 596.73 Z" />
</g>
</svg>
