{
"TOTAL_MEMORY": 536870912,
"dataUrl": "3dRoomBuild.data.unityweb",
"asmCodeUrl": "3dRoomBuild.asm.code.unityweb",
"asmMemoryUrl": "3dRoomBuild.asm.memory.unityweb",
"asmFrameworkUrl": "3dRoomBuild.asm.framework.unityweb",
"splashScreenStyle": "Dark",
"backgroundColor": "#222C36"
}